<svg width="80" height="80" viewBox="0 0 80 80" fill="none"
    xmlns="http://www.w3.org/2000/svg">
    <path
        d="M33.3503 1.38745C15.3916 1.38745 0.78125 15.9978 0.78125 33.9562C0.78125 51.9146 15.3916 66.525 33.3503 66.525C35.3828 66.525 37.3716 66.3359 39.3019 65.9781V41.8431C39.3019 40.8193 40.1394 39.9818 41.1631 39.9818H44.8475V38.4543C44.8475 37.5287 45.6419 36.7887 46.5859 36.8787C47.4091 36.9571 48.0134 37.6956 48.0134 38.5225V39.9818H65.3581C65.725 38.0281 65.9194 36.0143 65.9194 33.9559C65.9191 15.9978 51.3088 1.38745 33.3503 1.38745Z"
        fill="#70D6F9" />
    <path
        d="M33.3504 5.81812C17.8357 5.81812 5.21387 18.4403 5.21387 33.9547C5.21387 49.4691 17.8361 62.0912 33.3504 62.0912C35.3926 62.0912 37.3823 61.8672 39.302 61.4519V41.8419C39.302 40.8181 40.1395 39.9806 41.1632 39.9806H44.8476V38.4531C44.8476 37.5275 45.642 36.7875 46.5861 36.8775C47.4092 36.9559 48.0136 37.6944 48.0136 38.5212V39.9806H60.8307C61.2564 38.0381 61.4873 36.0231 61.4873 33.9547C61.487 18.44 48.8648 5.81812 33.3504 5.81812Z"
        fill="#FCDD86" />
    <path
        d="M33.4375 9.375C19.8031 9.375 8.75 20.4281 8.75 34.0625C8.75 47.6969 19.8031 58.75 33.4375 58.75C35.4591 58.75 37.4216 58.5016 39.3019 58.0434V41.8422C39.3019 40.8184 40.1394 39.9809 41.1631 39.9809H44.8475V38.4534C44.8475 37.5278 45.6419 36.7878 46.5859 36.8778C47.4091 36.9563 48.0134 37.6947 48.0134 38.5216V39.9809H57.4062C57.8725 38.0841 58.125 36.1031 58.125 34.0625C58.125 20.4281 47.0719 9.375 33.4375 9.375Z"
        fill="#EDF4FC" />
    <path
        d="M77.3577 39.9807H73.8568V42.1326C73.8568 42.9595 73.2524 43.6976 72.4293 43.7763C71.4852 43.8663 70.6908 43.1263 70.6908 42.2007V39.9807H48.0133V42.1326C48.0133 42.9595 47.4089 43.6976 46.5858 43.7763C45.6418 43.8663 44.8474 43.1263 44.8474 42.2007V39.9807H41.163C40.1393 39.9807 39.3018 40.8182 39.3018 41.842V76.7529C39.3018 77.7766 40.1393 78.6142 41.163 78.6142H77.3577C78.3814 78.6142 79.2189 77.7766 79.2189 76.7529V41.842C79.2189 40.8185 78.3814 39.9807 77.3577 39.9807Z"
        fill="#EDF4FC" />
    <path
        d="M59.031 63.1662C58.8813 63.0784 58.8832 62.864 59.03 62.7721C59.3619 62.5649 59.6535 62.3146 59.9038 62.0221C60.581 61.2293 60.9244 60.2475 60.9244 59.1046C60.9244 57.3156 60.066 55.7493 58.3341 54.9006C57.5122 54.4978 56.5288 54.2937 55.4113 54.2937C51.6922 54.2937 49.5841 56.4718 49.3575 59.6943C49.3322 60.0546 49.6178 60.3631 49.981 60.3631H51.9944C52.3091 60.3631 52.5825 60.1303 52.6147 59.8171C52.7878 58.119 53.855 57.2859 55.366 57.2859C56.8744 57.2859 57.6375 58.085 57.6375 59.3309C57.6375 59.9212 57.6375 61.4887 54.0991 61.4887H53.556C53.2107 61.4887 52.931 61.7684 52.931 62.1137V63.8334C52.931 64.1784 53.2107 64.4584 53.556 64.4584H54.0991C56.0291 64.4584 57.9541 64.9524 57.9541 66.8878C57.9541 68.1587 57.1553 69.0687 55.4341 69.0687C53.625 69.0687 52.5982 68.0546 52.3647 66.3499C52.3219 66.0378 52.045 65.8103 51.73 65.8103H49.7091C49.3369 65.8103 49.0469 66.1343 49.0878 66.5037C49.4972 70.2153 52.0041 72.0834 55.5019 72.0834C59.2653 72.0834 61.2175 69.8515 61.2175 67.0009C61.2181 65.2096 60.4872 64.0206 59.031 63.1662Z"
        fill="#3A70BF" />
    <path
        d="M67.1504 54.7246H62.5801C62.2348 54.7246 61.9551 55.0043 61.9551 55.3496V57.273C61.9551 57.618 62.2348 57.898 62.5801 57.898H64.021C64.2045 57.898 64.3535 58.0468 64.3535 58.2305V71.3018C64.3535 71.6468 64.6332 71.9268 64.9785 71.9268H67.1504C67.4957 71.9268 67.7754 71.6468 67.7754 71.3018V55.3499C67.7754 55.0043 67.4957 54.7246 67.1504 54.7246Z"
        fill="#3A70BF" />
    <path
        d="M77.3577 39.9807H73.8568V42.1326C73.8568 42.9595 73.2524 43.6976 72.4293 43.7763C71.4852 43.8663 70.6908 43.1263 70.6908 42.2007V39.9807H48.0133V42.1326C48.0133 42.9595 47.4089 43.6976 46.5858 43.7763C45.6418 43.8663 44.8474 43.1263 44.8474 42.2007V39.9807H41.163C40.1393 39.9807 39.3018 40.8182 39.3018 41.842V48.5954H79.2189V41.842C79.2189 40.8185 78.3814 39.9807 77.3577 39.9807Z"
        fill="#FC657E" />
    <path
        d="M72.4289 43.7748C73.252 43.6964 73.8564 42.9579 73.8564 42.1311V38.5198C73.8564 37.693 73.252 36.9548 72.4289 36.8761C71.4848 36.7861 70.6904 37.5261 70.6904 38.4517V42.1992C70.6904 43.1248 71.4848 43.8651 72.4289 43.7748Z"
        fill="#FCDD86" />
    <path
        d="M46.5861 43.7748C47.4092 43.6964 48.0136 42.9579 48.0136 42.1311V38.5198C48.0136 37.693 47.4092 36.9548 46.5861 36.8761C45.642 36.7861 44.8477 37.5261 44.8477 38.4517V42.1992C44.8477 43.1248 45.642 43.8651 46.5861 43.7748Z"
        fill="#FCDD86" />
    <path
        d="M28.4906 33.9546C28.4906 33.1718 28.6813 32.4337 29.0116 31.7781H18.1538C16.9297 31.7781 15.9375 32.7703 15.9375 33.9943C15.9375 35.2184 16.9297 36.2106 18.1538 36.2106H29.0497C28.6944 35.5356 28.4906 34.769 28.4906 33.9546Z"
        fill="#3A70BF" />
    <path
        d="M35.3415 29.5293C35.1918 29.4618 35.0915 29.3181 35.0915 29.154V13.0106C35.0915 12.184 34.4871 11.4456 33.6643 11.3668C32.7202 11.2768 31.9259 12.0168 31.9259 12.9424V29.019C31.9259 29.1934 31.8131 29.3437 31.6496 29.4046C29.719 30.1284 28.3671 32.0465 28.5002 34.2549C28.6474 36.699 30.6668 38.6918 33.1121 38.8093C35.8993 38.9431 38.2096 36.7143 38.2096 33.9559C38.2096 31.9865 37.0299 30.2912 35.3415 29.5293Z"
        fill="#FC657E" />
    <path
        d="M33.3502 35.8294C34.3861 35.8294 35.2259 34.9896 35.2259 33.9537C35.2259 32.9179 34.3861 32.0781 33.3502 32.0781C32.3144 32.0781 31.4746 32.9179 31.4746 33.9537C31.4746 34.9896 32.3144 35.8294 33.3502 35.8294Z"
        fill="#EF4460" />
    <path
        d="M33.3503 67.3065C14.9609 67.3065 0 52.3456 0 33.9562C0 15.5668 14.9609 0.606201 33.3503 0.606201C51.7397 0.606201 66.7003 15.5671 66.7003 33.9565C66.7003 36.0215 66.5069 38.0975 66.1259 40.1268C66.0566 40.4962 65.7341 40.764 65.3581 40.764H48.0134C47.5819 40.764 47.2322 40.4143 47.2322 39.9828V38.5237C47.2322 38.0765 46.9156 37.6965 46.5119 37.6578C46.2822 37.6353 46.0609 37.7081 45.8916 37.8618C45.7222 38.0159 45.6287 38.2265 45.6287 38.4553V39.9828C45.6287 40.4143 45.2791 40.764 44.8475 40.764H41.1631C40.5678 40.764 40.0831 41.2484 40.0831 41.844V65.979C40.0831 66.3556 39.8147 66.6784 39.4444 66.7471C37.4406 67.1181 35.3903 67.3065 33.3503 67.3065ZM33.3503 2.1687C15.8225 2.1687 1.5625 16.4284 1.5625 33.9562C1.5625 51.484 15.8225 65.744 33.3503 65.744C35.0788 65.744 36.815 65.6021 38.5206 65.3218V41.8434C38.5206 40.3862 39.7059 39.2009 41.1631 39.2009H44.0662V38.4546C44.0662 37.79 44.3484 37.1525 44.8406 36.705C45.3322 36.2578 45.9947 36.0375 46.6603 36.1015C47.8572 36.2159 48.7947 37.2796 48.7947 38.5231V39.2009H64.7034C64.9922 37.47 65.1381 35.709 65.1381 33.9562C65.1378 16.4284 50.8781 2.1687 33.3503 2.1687Z"
        fill="black" />
    <path
        d="M33.3506 9.13218C32.919 9.13218 32.5693 8.78249 32.5693 8.35093V5.81812C32.5693 5.38655 32.919 5.03687 33.3506 5.03687C33.7821 5.03687 34.1318 5.38655 34.1318 5.81812V8.35093C34.1318 8.78249 33.7821 9.13218 33.3506 9.13218Z"
        fill="black" />
    <path
        d="M33.3506 62.8727C32.919 62.8727 32.5693 62.523 32.5693 62.0914V59.5586C32.5693 59.127 32.919 58.7773 33.3506 58.7773C33.7821 58.7773 34.1318 59.127 34.1318 59.5586V62.0914C34.1318 62.523 33.7821 62.8727 33.3506 62.8727Z"
        fill="black" />
    <path
        d="M20.5495 12.5626C20.2795 12.5626 20.0167 12.4226 19.8723 12.172L18.6057 9.97853C18.3901 9.60478 18.5179 9.12697 18.8917 8.91134C19.2651 8.69572 19.7432 8.82384 19.9589 9.19728L21.2254 11.3907C21.4411 11.7645 21.3132 12.2423 20.9395 12.4579C20.8164 12.5285 20.682 12.5626 20.5495 12.5626Z"
        fill="black" />
    <path
        d="M11.1753 21.9352C11.0428 21.9352 10.9084 21.9015 10.7853 21.8306L8.59188 20.5643C8.21813 20.3487 8.09032 19.8709 8.30594 19.4971C8.52126 19.1237 8.99907 18.9949 9.37313 19.2112L11.5666 20.4774C11.9403 20.6931 12.0681 21.1709 11.8525 21.5446C11.7081 21.7952 11.4453 21.9352 11.1753 21.9352Z"
        fill="black" />
    <path
        d="M7.74637 34.7375H5.21387C4.7823 34.7375 4.43262 34.3879 4.43262 33.9563C4.43262 33.5247 4.7823 33.175 5.21387 33.175H7.74637C8.17793 33.175 8.52762 33.5247 8.52762 33.9563C8.52762 34.3879 8.17762 34.7375 7.74637 34.7375Z"
        fill="black" />
    <path
        d="M61.4866 34.7375H58.9541C58.5225 34.7375 58.1729 34.3879 58.1729 33.9563C58.1729 33.5247 58.5225 33.175 58.9541 33.175H61.4866C61.9182 33.175 62.2679 33.5247 62.2679 33.9563C62.2679 34.3879 61.9182 34.7375 61.4866 34.7375Z"
        fill="black" />
    <path
        d="M8.98411 48.8044C8.71411 48.8044 8.4513 48.6644 8.30692 48.4138C8.0913 48.0401 8.21911 47.5623 8.59286 47.3466L10.7863 46.0804C11.1597 45.8641 11.6379 45.9926 11.8535 46.3663C12.0691 46.7401 11.9413 47.2179 11.5675 47.4335L9.37411 48.6998C9.25098 48.7707 9.1163 48.8044 8.98411 48.8044Z"
        fill="black" />
    <path
        d="M55.5251 21.9352C55.2551 21.9352 54.9923 21.7952 54.8479 21.5446C54.6323 21.1709 54.7601 20.6931 55.1339 20.4774L57.3273 19.2112C57.7011 18.9949 58.1789 19.1237 58.3945 19.4971C58.6101 19.8709 58.4823 20.3487 58.1086 20.5643L55.9151 21.8306C55.792 21.9018 55.6576 21.9352 55.5251 21.9352Z"
        fill="black" />
    <path
        d="M19.2807 59.1032C19.1482 59.1032 19.0138 59.0694 18.8907 58.9985C18.517 58.7829 18.3891 58.3051 18.6048 57.9313L19.8713 55.7379C20.087 55.3641 20.5651 55.2363 20.9385 55.4519C21.3123 55.6676 21.4401 56.1454 21.2245 56.5191L19.9579 58.7126C19.8135 58.9632 19.5507 59.1032 19.2807 59.1032Z"
        fill="black" />
    <path
        d="M46.1518 12.5625C46.0193 12.5625 45.8849 12.5287 45.7618 12.4578C45.3881 12.2422 45.2602 11.7644 45.4759 11.3906L46.7421 9.19718C46.9577 8.82374 47.4352 8.6953 47.8093 8.91124C48.183 9.12686 48.3109 9.60468 48.0952 9.97843L46.829 12.1719C46.6843 12.4222 46.4218 12.5625 46.1518 12.5625Z"
        fill="black" />
    <path
        d="M77.3574 79.3965H41.163C39.7058 79.3965 38.5205 78.2112 38.5205 76.754V41.8431C38.5205 40.3859 39.7058 39.2006 41.163 39.2006H44.8474C45.2789 39.2006 45.6286 39.5503 45.6286 39.9818V42.2018C45.6286 42.4306 45.7221 42.6412 45.8914 42.7953C46.0608 42.949 46.2805 43.0212 46.5118 42.9993C46.9155 42.9606 47.2321 42.5806 47.2321 42.1334V39.9815C47.2321 39.55 47.5818 39.2003 48.0133 39.2003H70.6908C71.1224 39.2003 71.4721 39.55 71.4721 39.9815V42.2015C71.4721 42.4303 71.5655 42.6409 71.7349 42.795C71.9043 42.9487 72.1246 43.0209 72.3552 42.999C72.7589 42.9603 73.0755 42.5803 73.0755 42.1331V39.9812C73.0755 39.5496 73.4252 39.2 73.8568 39.2H77.358C78.8152 39.2 80.0005 40.3853 80.0005 41.8425V76.7534C79.9999 78.2112 78.8146 79.3965 77.3574 79.3965ZM41.163 40.7631C40.5677 40.7631 40.083 41.2475 40.083 41.8431V76.754C40.083 77.3496 40.5674 77.834 41.163 77.834H77.3577C77.953 77.834 78.4377 77.3496 78.4377 76.754V41.8431C78.4377 41.2478 77.9533 40.7631 77.3577 40.7631H74.6377V42.1337C74.6377 43.3771 73.7002 44.4409 72.5033 44.5553C71.838 44.6184 71.1752 44.399 70.6836 43.9518C70.1914 43.5043 69.9093 42.8668 69.9093 42.2021V40.7634H48.7943V42.134C48.7943 43.3775 47.8568 44.4412 46.6599 44.5556C45.9946 44.6187 45.3318 44.3993 44.8402 43.9521C44.348 43.5046 44.0658 42.8671 44.0658 42.2025V40.7637H41.163V40.7631Z"
        fill="black" />
    <path
        d="M55.9316 45.1724C55.5016 45.1724 55.1523 44.8249 55.1504 44.3943C55.1485 43.963 55.497 43.6118 55.9285 43.6099L63.7529 43.5774H63.756C64.186 43.5774 64.5354 43.9249 64.5373 44.3555C64.5392 44.7868 64.1907 45.138 63.7592 45.1399L55.9348 45.1724C55.9338 45.1724 55.9326 45.1724 55.9316 45.1724Z"
        fill="black" />
    <path
        d="M70.8141 20.2653C71.2356 20.345 71.5187 20.7228 71.5187 21.1243C71.5187 21.6084 71.1284 22.0009 70.6422 22.0009C70.1725 22.0009 69.7656 21.6203 69.7656 21.1243C69.7659 20.5837 70.2516 20.1606 70.8141 20.2653Z"
        fill="#87D147" />
    <path
        d="M19.5641 68.0777C19.9856 68.1574 20.2687 68.5352 20.2687 68.9368C20.2687 69.4058 19.8916 69.8133 19.3922 69.8133C18.9316 69.8133 18.5156 69.4405 18.5156 68.9368C18.5159 68.3955 19.0028 67.9733 19.5641 68.0777Z"
        fill="#EF4460" />
    <path
        d="M75.4925 30.3515H74.8456V30.9984C74.8456 31.4825 74.4531 31.875 73.969 31.875C73.485 31.875 73.0925 31.4825 73.0925 30.9984V30.3515H72.4459C71.9618 30.3515 71.5693 29.959 71.5693 29.475C71.5693 28.9909 71.9618 28.5984 72.4459 28.5984H73.0925V27.9515C73.0925 27.4675 73.485 27.075 73.969 27.075C74.4531 27.075 74.8456 27.4675 74.8456 27.9515V28.5984H75.4925C75.9765 28.5984 76.369 28.9909 76.369 29.475C76.369 29.959 75.9765 30.3515 75.4925 30.3515Z"
        fill="#3CAADC" />
    <path
        d="M31.5511 72.456C30.2839 72.692 29.2855 73.6704 29.0445 74.9117C29.0323 74.9742 28.9455 74.9742 28.9333 74.9117C28.6923 73.6704 27.6936 72.692 26.4267 72.456C26.363 72.4442 26.363 72.3589 26.4267 72.347C27.6939 72.111 28.6923 71.1326 28.9333 69.8914C28.9455 69.8289 29.0323 69.8289 29.0445 69.8914C29.2855 71.1326 30.2842 72.111 31.5511 72.347C31.6148 72.3592 31.6148 72.4442 31.5511 72.456Z"
        fill="#F5C84C" />
    <path
        d="M33.3498 62.8735C17.4045 62.8735 4.43164 49.901 4.43164 33.9557C4.43164 18.0104 17.4041 5.0376 33.3498 5.0376C49.2951 5.0376 62.2676 18.0101 62.2676 33.9557C62.2676 36.0229 62.0407 38.1067 61.5929 40.1488C61.5144 40.5073 61.1966 40.7629 60.8298 40.7629H48.0126C47.581 40.7629 47.2313 40.4132 47.2313 39.9817V38.5226C47.2313 38.0754 46.9148 37.6954 46.511 37.6567C46.2798 37.6342 46.0601 37.707 45.8907 37.8607C45.7213 38.0148 45.6279 38.2254 45.6279 38.4542V39.9817C45.6279 40.4132 45.2782 40.7629 44.8466 40.7629H41.1623C40.5669 40.7629 40.0823 41.2473 40.0823 41.8429V61.4529C40.0823 61.8207 39.8257 62.1388 39.466 62.2163C37.4507 62.6526 35.3929 62.8735 33.3498 62.8735ZM33.3498 6.60041C18.2657 6.60041 5.99414 18.872 5.99414 33.956C5.99414 49.0398 18.2657 61.3113 33.3498 61.3113C35.0745 61.3113 36.8107 61.1448 38.5201 60.8157V41.8432C38.5201 40.386 39.7054 39.2007 41.1626 39.2007H44.0657V38.4545C44.0657 37.7898 44.3479 37.1523 44.8401 36.7048C45.3316 36.2576 45.9941 36.0373 46.6598 36.1013C47.8566 36.2157 48.7941 37.2795 48.7941 38.5229V39.2007H60.1941C60.5332 37.4657 60.7051 35.7042 60.7051 33.956C60.7051 18.872 48.4335 6.60041 33.3498 6.60041Z"
        fill="black" />
    <path
        d="M29.0497 36.9918H18.1537C16.5009 36.9918 15.1562 35.6471 15.1562 33.9943C15.1562 32.3414 16.5009 30.9971 18.1537 30.9971H29.0116C29.2828 30.9971 29.5344 31.1377 29.6766 31.3686C29.8191 31.5996 29.8313 31.8877 29.7091 32.1299C29.4187 32.7058 29.2719 33.3199 29.2719 33.9549C29.2719 34.6189 29.4297 35.2555 29.7409 35.8464C29.8684 36.0886 29.86 36.3799 29.7188 36.6143C29.5772 36.8483 29.3234 36.9918 29.0497 36.9918ZM18.1537 32.5593C17.3625 32.5593 16.7188 33.203 16.7188 33.9939C16.7188 34.7849 17.3625 35.4289 18.1537 35.4289H27.9075C27.7769 34.9486 27.7094 34.4518 27.7094 33.9546C27.7094 33.4793 27.7684 33.013 27.8859 32.5593H18.1537Z"
        fill="black" />
    <path
        d="M33.3542 39.5962C33.2614 39.5962 33.1683 39.594 33.0748 39.5897C30.243 39.4534 27.8908 37.1309 27.7205 34.3018C27.5755 31.894 28.943 29.7 31.1445 28.7656V12.9422C31.1445 12.2775 31.4267 11.64 31.9189 11.1925C32.4105 10.7453 33.0733 10.525 33.7386 10.589C34.9355 10.7034 35.873 11.7668 35.873 13.0103V28.9168C37.7745 29.8709 38.9911 31.8237 38.9911 33.9556C38.9911 35.5115 38.3692 36.9612 37.2398 38.0375C36.1792 39.0487 34.8086 39.5962 33.3542 39.5962ZM33.5095 12.1406C33.3086 12.1406 33.1195 12.2131 32.9702 12.3487C32.8008 12.5028 32.7073 12.7134 32.7073 12.9422V29.0187C32.7073 29.5187 32.4001 29.9572 31.9248 30.1359C30.2342 30.7697 29.1717 32.4059 29.2805 34.2078C29.4036 36.2522 31.1033 37.9306 33.1502 38.029C34.278 38.0825 35.3461 37.6843 36.162 36.9068C36.9789 36.1284 37.4286 35.0803 37.4286 33.9559C37.4286 32.3597 36.4833 30.9015 35.0205 30.2415C35.0205 30.2415 35.0202 30.2415 35.0202 30.2412C34.5892 30.0465 34.3108 29.6197 34.3108 29.154V13.0103C34.3108 12.5634 33.9942 12.1831 33.5905 12.1443C33.5633 12.1418 33.5361 12.1406 33.5095 12.1406Z"
        fill="black" />
    <path
        d="M33.3502 36.6106C31.8852 36.6106 30.6934 35.4187 30.6934 33.9537C30.6934 32.4887 31.8852 31.2969 33.3502 31.2969C34.8152 31.2969 36.0068 32.4887 36.0068 33.9537C36.0068 35.4187 34.8149 36.6106 33.3502 36.6106ZM33.3502 32.8594C32.7468 32.8594 32.2559 33.3503 32.2559 33.9537C32.2559 34.5572 32.7468 35.0481 33.3502 35.0481C33.9537 35.0481 34.4443 34.5572 34.4443 33.9537C34.4443 33.3503 33.9534 32.8594 33.3502 32.8594Z"
        fill="black" />
    <path
        d="M55.5029 72.8653C51.4338 72.8653 48.7454 70.5193 48.3123 66.5896C48.2682 66.1931 48.396 65.7953 48.6626 65.4975C48.9291 65.1996 49.3107 65.029 49.7101 65.029H51.731C52.4394 65.029 53.0451 65.5512 53.1398 66.244C53.3279 67.619 54.0788 68.2874 55.4351 68.2874C57.1738 68.2874 57.1738 67.234 57.1738 66.8878C57.1738 66.4803 57.1738 65.2396 54.1001 65.2396H53.5569C52.7816 65.2396 52.1507 64.6087 52.1507 63.8334V62.1137C52.1507 61.3384 52.7816 60.7075 53.5569 60.7075H54.1001C56.8573 60.7075 56.8573 59.7775 56.8573 59.3309C56.8573 58.7884 56.7029 58.0671 55.3669 58.0671C54.181 58.0671 53.5166 58.6825 53.3929 59.8962C53.3201 60.6078 52.7191 61.144 51.9954 61.144H49.9819C49.5932 61.144 49.2182 60.9809 48.9532 60.6965C48.6882 60.4118 48.5516 60.0265 48.5791 59.639C48.8448 55.86 51.4629 53.5125 55.4123 53.5125C56.6501 53.5125 57.7491 53.7434 58.6788 54.199C60.6029 55.1418 61.7063 56.93 61.7063 59.1046C61.7063 60.439 61.3001 61.5915 60.4985 62.5296C60.3735 62.6759 60.2395 62.8137 60.0966 62.9428C61.3757 63.9287 61.9998 65.264 61.9998 67.0015C61.9998 70.5637 59.4498 72.8653 55.5029 72.8653ZM49.8863 66.5918C50.2876 69.6318 52.2757 71.3028 55.5029 71.3028C58.5463 71.3028 60.4373 69.6546 60.4373 67.0015C60.4373 65.5265 59.8985 64.5812 58.636 63.8403C58.3294 63.6603 58.1435 63.3409 58.1385 62.9856C58.1335 62.6275 58.3123 62.3003 58.6163 62.11C58.8798 61.9453 59.1132 61.745 59.3107 61.5143C59.8632 60.8675 60.1438 60.0565 60.1438 59.1046C60.1438 57.5262 59.3794 56.2824 57.991 55.6021C57.2769 55.2521 56.4091 55.0746 55.4119 55.0746C52.3282 55.0746 50.4194 56.7146 50.1513 59.5815H51.8569C52.1138 57.6512 53.416 56.5046 55.3669 56.5046C57.2501 56.5046 58.4198 57.5875 58.4198 59.3309C58.4198 61.2812 56.9663 62.2699 54.1001 62.2699H53.7132V63.6771H54.1001C58.1341 63.6771 58.7363 65.6887 58.7363 66.8878C58.7363 68.715 57.4713 69.8499 55.4351 69.8499C53.3332 69.8499 51.9466 68.6646 51.6119 66.5915H49.8863V66.5918ZM59.4266 62.4925L59.4269 62.4928C59.4269 62.4928 59.4269 62.4928 59.4266 62.4925Z"
        fill="black" />
    <path
        d="M67.1504 72.7078H64.9785C64.2032 72.7078 63.5723 72.0769 63.5723 71.3016V58.6791H62.5801C61.8048 58.6791 61.1738 58.0481 61.1738 57.2728V55.3494C61.1738 54.5741 61.8048 53.9431 62.5801 53.9431H67.1504C67.9257 53.9431 68.5566 54.5741 68.5566 55.3494V71.3012C68.5566 72.0769 67.926 72.7078 67.1504 72.7078ZM65.1348 71.1453H66.9941V55.5059H62.7363V57.1169H64.021C64.6351 57.1169 65.1345 57.6166 65.1345 58.2303V71.1453H65.1348ZM67.1504 55.5059H67.1535H67.1504Z"
        fill="black" />
    <path
        d="M79.2186 49.3778H39.3018C38.8702 49.3778 38.5205 49.0281 38.5205 48.5965V41.8431C38.5205 40.3859 39.7058 39.2006 41.163 39.2006H44.8474C45.2789 39.2006 45.6286 39.5503 45.6286 39.9818V42.2018C45.6286 42.4306 45.7221 42.6412 45.8914 42.7953C46.0608 42.949 46.2805 43.0212 46.5118 42.9993C46.9155 42.9606 47.2321 42.5806 47.2321 42.1334V39.9815C47.2321 39.55 47.5818 39.2003 48.0133 39.2003H70.6908C71.1224 39.2003 71.4721 39.55 71.4721 39.9815V42.2015C71.4721 42.4303 71.5655 42.6409 71.7349 42.795C71.9043 42.9487 72.1246 43.0209 72.3552 42.999C72.7589 42.9603 73.0755 42.5803 73.0755 42.1331V39.9812C73.0755 39.5496 73.4252 39.2 73.8568 39.2H77.358C78.8152 39.2 80.0005 40.3853 80.0005 41.8425V48.5959C79.9999 49.0281 79.6502 49.3778 79.2186 49.3778ZM40.083 47.8153H78.4374V41.8431C78.4374 41.2478 77.953 40.7631 77.3574 40.7631H74.6374V42.1337C74.6374 43.3771 73.6999 44.4409 72.503 44.5553C71.8377 44.6184 71.1749 44.399 70.6833 43.9518C70.1911 43.5043 69.9089 42.8668 69.9089 42.2021V40.7634H48.7939V42.134C48.7939 43.3775 47.8564 44.4412 46.6596 44.5556C45.9943 44.6187 45.3314 44.3993 44.8399 43.9521C44.3477 43.5046 44.0655 42.8671 44.0655 42.2025V40.7637H41.1624C40.5671 40.7637 40.0824 41.2481 40.0824 41.8437V47.8153H40.083Z"
        fill="black" />
    <path
        d="M72.2776 44.5659C71.6904 44.5659 71.1195 44.348 70.6836 43.9518C70.1914 43.5043 69.9092 42.8668 69.9092 42.2021V38.4546C69.9092 37.7899 70.1914 37.1524 70.6836 36.7049C71.1751 36.2577 71.8376 36.0374 72.5032 36.1015C73.7001 36.2159 74.6376 37.2793 74.6376 38.523V42.1343C74.6376 43.3777 73.7001 44.4415 72.5032 44.5559C72.4279 44.5624 72.3526 44.5659 72.2776 44.5659ZM72.2739 37.6527C72.0729 37.6527 71.8839 37.7252 71.7345 37.8609C71.5651 38.0149 71.4717 38.2255 71.4717 38.4543V42.2018C71.4717 42.4305 71.5651 42.6412 71.7345 42.7952C71.9039 42.949 72.1242 43.0212 72.3548 42.9993C72.7586 42.9605 73.0751 42.5805 73.0751 42.1334V38.5221C73.0751 38.0749 72.7586 37.6949 72.3548 37.6562C72.3276 37.6543 72.3007 37.6527 72.2739 37.6527Z"
        fill="black" />
    <path
        d="M46.4348 44.5659C45.8477 44.5659 45.2767 44.348 44.8408 43.9518C44.3486 43.5043 44.0664 42.8668 44.0664 42.2021V38.4546C44.0664 37.7899 44.3486 37.1524 44.8408 36.7049C45.3323 36.2577 45.9948 36.0374 46.6605 36.1015C47.8573 36.2159 48.7948 37.2796 48.7948 38.523V42.1343C48.7948 43.3777 47.8573 44.4415 46.6605 44.5559C46.5852 44.5624 46.5102 44.5659 46.4348 44.5659ZM46.4311 37.6527C46.2302 37.6527 46.0411 37.7252 45.8917 37.8609C45.7223 38.0149 45.6289 38.2255 45.6289 38.4543V42.2018C45.6289 42.4305 45.7223 42.6412 45.8917 42.7952C46.0611 42.949 46.2808 43.0212 46.512 42.9993C46.9158 42.9605 47.2323 42.5805 47.2323 42.1334V38.5221C47.2323 38.0749 46.9158 37.6949 46.512 37.6562C46.4848 37.6543 46.458 37.6527 46.4311 37.6527Z"
        fill="black" />
</svg>
